…
34   34 404550322 廖繆傑   男  30    35 100    82 100.0   51   88     9
35   35 404550328 李梅祐   男  20    25  55    32  86.7   41   48     7
36   36 404550369 陳王霖   女  55    73  92    73 100.0   72   81     9
37   37 404550420 何瑄穎   男  28    10  35     3  66.7   30    0     7
38   38 404550431 沈泓霏   女  15    25  53    67  93.3   29   42     9
39   39 404550442 許安霏   女  53    60  80    72 100.0   61   62     9
40   40 404550453 李政宜   男  80   100  85   100 100.0   95  100     3
> y <- read_excel("Calculus-score-B.xls", skip = 2)
New names:
* `0.070000000000000007` -> `0.070000000000000007...5`
* `0.070000000000000007` -> `0.070000000000000007...6`
* `0.080000000000000002` -> `0.080000000000000002...7`
* `0.080000000000000002` -> `0.080000000000000002...8`
> y
# A tibble: 55 x 12
    座號   學號 姓名  性別  `0.070000000000~ `0.070000000000~ `0.080000000000~
   <dbl>  <dbl> <chr> <chr>            <dbl>            <dbl>            <dbl>
 1     1 4.05e8 史文羽~ 男                  60               81              100
 2     2 4.05e8 鄭樺妤~ 男                  80              100              100
 3     3 4.05e8 張敬安~ 男                  10               40               62
 4     4 4.05e8 何筑亦~ 女                  15               25               40
 5     5 4.05e8 張  儀~ 女                  30               45               70
 6     6 4.02e8 雷西萱~ 男                  75               78               67
 7     7 4.02e8 張麥笙~ 女                  60               33               15
 8     8 4.04e8 張水兆~ 男                   0               30               50
 9     9 4.05e8 柯榮品~ 男                   0                0                5
10    10 4.05e8 謝卡欣~ 男                  30               25               30
# ... with 45 more rows, and 5 more variables: `0.080000000000000002...8` <dbl>,
#   `0.14999999999999999` <dbl>, `0.25` <dbl>, `0.29999999999999999` <dbl>,
#   Times <dbl>
…
